[
    {
        "name": "diluc",
        "build_possible": [
            {
                "main-dps": [
                    {	
                        "arme": "wolf-s-gravestone",
                        "set-artefact":[
                            {
                                "set-artefact-un": "crimson-witch-of-flames",
                                "set-artefact-deux": "crimson-witch-of-flames"
                            },
                            {        
                                "set-artefact-un": "crimson-witch-of-flames",
                                "set-artefact-deux": "gladiator-s-finale"
                            },
                            {
                                "set-artefact-un": "gladiator-s-finale",
                                "set-artefact-deux": "gladiator-s-finale"
                            }
                        ]   
                    },
                    {	
                        "arme": "skyward-blade",
                        "set-artefact":[
                            {
                                "set-artefact-un": "crimson-witch-of-flames",
                                "set-artefact-deux": "crimson-witch-of-flames"
                            },
                            {        
                                "set-artefact-un": "crimson-witch-of-flames",
                                "set-artefact-deux": "gladiator-s-finale"
                            },
                            {
                                "set-artefact-un": "gladiator-s-finale",
                                "set-artefact-deux": "gladiator-s-finale"
                            }
                        ]
                    }
                ]
            }       
        ]
    },
    {
        "name": "xiao",
        "build_possible": [
            {
                "main-dps": [
                    {	
                        "arme": "primordial-jade-winged-spear",
                        "set-artefact":[
                            {
                                "set-artefact-un": "viridescent-venerer",
                                "set-artefact-deux": "viridescent-venerer"
                            },
                            {        
                                "set-artefact-un": "viridescent-venerer",
                                "set-artefact-deux": "gladiator-s-finale"
                            },
                            {
                                "set-artefact-un": "gladiator-s-finale",
                                "set-artefact-deux": "gladiator-s-finale"
                            }
                        ]   
                    },
                    {	
                        "arme": "skyward-spine",
                        "set-artefact":[
                            {
                                "set-artefact-un": "viridescent-venerer",
                                "set-artefact-deux": "viridescent-venerer"
                            },
                            {        
                                "set-artefact-un": "viridescent-venerer",
                                "set-artefact-deux": "gladiator-s-finale"
                            },
                            {
                                "set-artefact-un": "gladiator-s-finale",
                                "set-artefact-deux": "gladiator-s-finale"
                            }
                        ]
                    }
                ]
            }       
        ]
    },
    {
        "name": "venti",
        "build_possible": [
            {
                "main-dps": [
                    {	
                        "arme": "skyward-harp",
                        "set-artefact":[
                            {
                                "set-artefact-un": "viridescent-venerer",
                                "set-artefact-deux": "viridescent-venerer"
                            }
                        ]   
                    }
                ],
                "support": [
                    {
                        "arme": "skyward-harp",
                        "set-artefact":[
                            {
                                "set-artefact-un": "viridescent-venerer",
                                "set-artefact-deux": "viridescent-venerer"
                            },
                            {        
                                "set-artefact-un": "viridescent-venerer",
                                "set-artefact-deux": "gladiator-s-finale"
                            },
                            {
                                "set-artefact-un": "instructor",
                                "set-artefact-deux": "instructor"
                            }
                        ]
                    },
                    {
                        "arme": "the-stringless",
                        "set-artefact":[
                            {
                                "set-artefact-un": "viridescent-venerer",
                                "set-artefact-deux": "viridescent-venerer"
                            },
                            {        
                                "set-artefact-un": "viridescent-venerer",
                                "set-artefact-deux": "gladiator-s-finale"
                            },
                            {
                                "set-artefact-un": "instructor",
                                "set-artefact-deux": "instructor"
                            }
                        ]
                    }
                ]
            }       
        ]
    },
    {
        "name": "diona",
        "build_possible": [
            {
                "healer": [
                    {	
                        "arme": "favonius-warbow",
                        "set-artefact":[
                            {
                                "set-artefact-un": "instructor",
                                "set-artefact-deux": "instructor"
                            },
                            {
                                "set-artefact-un": "maiden-beloved",
                                "set-artefact-deux": "maiden-beloved"
                            },
                            {
                                "set-artefact-un": "the-exile",
                                "set-artefact-deux": "the-exile"
                            },
                            {
                                "set-artefact-un": "noblesse-oblige",
                                "set-artefact-deux": "noblesse-oblige"
                            }
                        ]   
                    }
                ],
                "support-dps": [
                    {
                        "arme": "sacrificial-bow",
                        "set-artefact":[
                            {
                                "set-artefact-un": "noblesse-oblige",
                                "set-artefact-deux": "noblesse-oblige"
                            },
                            {
                                "set-artefact-un": "instructor",
                                "set-artefact-deux": "instructor"
                            },
                            {
                                "set-artefact-un": "noblesse-oblige",
                                "set-artefact-deux": "gladiator-s-finale"
                            }
                        ]
                    }
                ]
            }       
        ]
    }
]