[
    {
        "Pyro":  {
            "main-dps": [
                {	
                    "main-dps": "diluc",
                    "support-dps": "bennett",
                    "support" : "venti",
                    "healer" : "diona"
                },
                {	
                    "main-dps": "diluc",
                    "support-dps": "bennett",
                    "support" : "sucrose",
                    "healer" : "diona"
                },
                {	
                    "main-dps": "diluc",
                    "support-dps": "xingqiu",
                    "support" : "venti",
                    "healer" : "bennett"
                },
                {	
                    "main-dps" : "diluc",
                    "support-dps": "xiangling",
                    "support": "venti",
                    "healer": "diona"
                },
                {	
                    "main-dps" : "diluc",
                    "support-dps": "xiangling",
                    "support": "venti",
                    "healer": "barbara"
                },
                {	
                    "main-dps" : "diluc",
                    "support-dps": "xiangling",
                    "support": "sucrose",
                    "healer": "diona"
                },
                {	
                    "main-dps" : "diluc",
                    "support-dps": "xiangling",
                    "support": "sucrose",
                    "healer": "barbara"
                },
                {	
                    "main-dps" : "klee",
                    "support-dps": "bennett",
                    "support": "venti",
                    "healer": "diona"
                },
                {	
                    "main-dps" : "klee",
                    "support-dps": "xingqiu",
                    "support": "venti",
                    "healer": "bennett"
                },
                {	
                    "main-dps" : "klee",
                    "support-dps": "xiangling",
                    "support": "venti",
                    "healer": "diona"
                }
            ],
            "support-dps":[
                {	
                    "main-dps" : "klee",
                    "support-dps": "xiangling",
                    "support": "venti",
                    "healer": "diona"
                },
                {	
                    "main-dps" : "klee",
                    "support-dps": "bennett",
                    "support": "venti",
                    "healer": "diona"
                },
                {	
                    "main-dps" : "diluc",
                    "support-dps": "xiangling",
                    "support": "sucrose",
                    "healer": "diona"
                }
            ],
            "support":[
                {	
                    "main-dps" : "xiao",
                    "support-dps": "beidou",
                    "support": "bennett",
                    "healer": "jean"
                }
            ],
            "healer": [
                {
                    "main-dps": "xiao",
                    "support-dps": "beidou",
                    "support" : "venti",
                    "healer" : "bennett"
                },
                {
                    "main-dps": "xiao",
                    "support-dps": "fischl",
                    "support" : "sucrose",
                    "healer" : "bennett"
                }
            ]
        }
    },
    {
        "Anemo":  {
            "main-dps": [
                {	
                    "main-dps": "venti",
                    "support-dps": "fischl",
                    "support" : "jean",
                    "healer" : "kaeya"
                },
                {	
                    "main-dps": "venti",
                    "support-dps": "jean",
                    "support" : "fischl",
                    "healer" : "diona"
                },
                {	
                    "main-dps" : "xiao",
                    "support-dps": "beidou",
                    "support": "venti",
                    "healer": "bennett"
                },
                {	
                    "main-dps" : "xiao",
                    "support-dps": "beidou",
                    "support": "bennett",
                    "healer": "jean"
                },
                {	
                    "main-dps" : "xiao",
                    "support-dps": "albedo",
                    "support": "venti",
                    "healer": "bennett"
                },
                {	
                    "main-dps" : "xiao",
                    "support-dps": "albedo",
                    "support": "fischl",
                    "healer": "jean"
                }
            ],
            "support-dps":[
                {	
                    "main-dps": "venti",
                    "support-dps": "jean",
                    "support" : "fischl",
                    "healer" : "diona"
                },
                {	
                    "main-dps": "diluc",
                    "support-dps": "venti",
                    "support" : "xingqiu",
                    "healer" : "bennett"
                }
            ],
            "support":[
                {	
                    "main-dps": "diluc",
                    "support-dps": "bennett",
                    "support" : "venti",
                    "healer" : "diona"
                },
                {
                    "main-dps": "zhongli",
                    "support-dps": "ningguang",
                    "support" : "venti",
                    "healer" : "diona"
                }
            ],
            "healer":[
                {
                    "main-dps" : "xiao",
                    "support-dps": "albedo",
                    "support": "fischl",
                    "healer": "jean"
                },
                {	
                    "main-dps" : "xiao",
                    "support-dps": "beidou",
                    "support": "bennett",
                    "healer": "jean"
                }
            ]
        }
    },
    {
        "Cryo":  {
            "main-dps": [
                {	
                    "main-dps": "chongyun",
                    "support-dps": "xiangling",
                    "support" : "mona",
                    "healer" : "qiqi"
                },
                {	
                    "main-dps" : "kaeya",
                    "support-dps": "lisa",
                    "support": "bennett",
                    "healer": "diona"
                }
            ],
            "support-dps":[
                {	
                    "main-dps": "razor",
                    "support-dps": "kaeya",
                    "support" : "xingqiu",
                    "healer" : "qiqi"
                },
                {
                    "main-dps": "venti",
                    "support-dps": "kaeya",
                    "support" : "fischl",
                    "healer" : "jean"                    
                }
            ],
            "support":[
                {	
                    "main-dps": "venti",
                    "support-dps": "fischl",
                    "support" : "diona",
                    "healer" : "jean"
                },
                {	
                    "main-dps": "diluc",
                    "support-dps": "venti",
                    "support" : "diona",
                    "healer" : "bennett"
                },
                {	
                    "main-dps" : "razor",
                    "support-dps": "fischl",
                    "support": "kaeya",
                    "healer": "bennett"
                }
            ],
            "healer":[
                {
                    "main-dps": "zhongli",
                    "support-dps": "ningguang",
                    "support" : "venti",
                    "healer" : "diona"
                },
                {	
                    "main-dps": "chongyun",
                    "support-dps": "xiangling",
                    "support" : "mona",
                    "healer" : "qiqi"
                },
                {	
                    "main-dps": "razor",
                    "support-dps": "kaeya",
                    "support" : "xingqiu",
                    "healer" : "qiqi"
                },
                {	
                    "main-dps": "diluc",
                    "support-dps": "bennett",
                    "support" : "venti",
                    "healer" : "diona"
                }
            ]
        }
    },
    {
        "Electro":  {
            "main-dps": [
                {	
                    "main-dps": "razor",
                    "support-dps": "kaeya",
                    "support" : "xingqiu",
                    "healer" : "qiqi"
                },
                {	
                    "main-dps": "razor",
                    "support-dps": "kaeya",
                    "support" : "qiqi",
                    "healer" : "barbara"
                },
                {	
                    "main-dps" : "razor",
                    "support-dps": "fischl",
                    "support": "kaeya",
                    "healer": "bennett"
                },
                {	
                    "main-dps" : "razor",
                    "support-dps": "lisa",
                    "support": "kaeya",
                    "healer": "bennett"
                },
                {	
                    "main-dps" : "razor",
                    "support-dps": "tartaglia",
                    "support": "kaeya",
                    "healer": "qiqi"
                }
            ],
            "support-dps":[
                {	
                    "main-dps" : "razor",
                    "support-dps": "fischl",
                    "support": "kaeya",
                    "healer": "bennett"
                },
                {	
                    "main-dps" : "xiao",
                    "support-dps": "beidou",
                    "support": "bennett",
                    "healer": "jean"
                },
                {	
                    "main-dps" : "kaeya",
                    "support-dps": "lisa",
                    "support": "bennett",
                    "healer": "diona"
                },
                {	
                    "main-dps" : "razor",
                    "support-dps": "fischl",
                    "support": "kaeya",
                    "healer": "bennett"
                }
            ],
            "support":[
                {
                    "main-dps": "venti",
                    "support-dps": "kaeya",
                    "support" : "fischl",
                    "healer" : "jean"                    
                },
                {	
                    "main-dps" : "xiao",
                    "support-dps": "bennett",
                    "support": "beidou",
                    "healer": "jean"
                },
                {	
                    "main-dps" : "xiao",
                    "support-dps": "albedo",
                    "support": "fischl",
                    "healer": "jean"
                }
            ],
            "healer":[
            ]
        }
    },
    {
        "Hydro":  {
            "main-dps": [
                {	
                    "main-dps": "tartaglia",
                    "support-dps": "xingqiu",
                    "support" : "fischl",
                    "healer" : "noelle"
                },
                {	
                    "main-dps" : "tartaglia",
                    "support-dps": "mona",
                    "support": "fischl",
                    "healer": "noelle"
                }
            ],
            "support-dps":[
                {	
                    "main-dps" : "tartaglia",
                    "support-dps": "mona",
                    "support": "fischl",
                    "healer": "noelle"
                },
                {	
                    "main-dps" : "razor",
                    "support-dps": "tartaglia",
                    "support": "kaeya",
                    "healer": "qiqi"
                },
                {	
                    "main-dps": "diluc",
                    "support-dps": "xingqiu",
                    "support" : "venti",
                    "healer" : "bennett"
                }
            ],
            "support":[
                {
                    "main-dps": "razor",
                    "support-dps": "kaeya",
                    "support" : "barbara",
                    "healer" : "qiqi"
                },
                {	
                    "main-dps": "diluc",
                    "support-dps": "venti",
                    "support" : "xingqiu",
                    "healer" : "bennett"
                }
            ],
            "healer":[
                {	
                    "main-dps" : "diluc",
                    "support-dps": "xiangling",
                    "support": "venti",
                    "healer": "barbara"
                },
                {	
                    "main-dps": "razor",
                    "support-dps": "kaeya",
                    "support" : "qiqi",
                    "healer" : "barbara"
                }
            ]
        }
    },
    {
        "Geo": {
            "main-dps": [
                {
                    "main-dps": "zhongli",
                    "support-dps": "ningguang",
                    "support" : "venti",
                    "healer" : "diona"
                }
            ],
            "support-dps":[
                {
                    "main-dps": "zhongli",
                    "support-dps": "ningguang",
                    "support" : "venti",
                    "healer" : "diona"
                },
                {	
                    "main-dps" : "xiao",
                    "support-dps": "albedo",
                    "support": "venti",
                    "healer": "bennett"
                },
                {	
                    "main-dps" : "xiao",
                    "support-dps": "albedo",
                    "support": "fischl",
                    "healer": "jean"
                }
            ],
            "support":[
                {
                    "main-dps" : "xiao",
                    "support-dps": "venti",
                    "support": "albedo",
                    "healer": "bennett"
                },
                {	
                    "main-dps": "tartaglia",
                    "support-dps": "fischl",
                    "support" : "noelle",
                    "healer" : "barbara"
                }
            ],
            "healer":[
                {	
                    "main-dps" : "tartaglia",
                    "support-dps": "mona",
                    "support": "fischl",
                    "healer": "noelle"
                },
                {	
                    "main-dps": "tartaglia",
                    "support-dps": "xingqiu",
                    "support" : "fischl",
                    "healer" : "noelle"
                }
            ]
        }
    }
]
    